{
  "project_info": {
    "project_number": "861340569273",
    "firebase_url": "https://aroundsocialmedia77.firebaseio.com",
    "project_id": "aroundsocialmedia77",
    "storage_bucket": "aroundsocialmedia77.appspot.com"
  },
  "client": [
    {
      "client_info": {
        "mobilesdk_app_id": "1:861340569273:android:90a82ecdfde1da20",
        "android_client_info": {
          "package_name": "com.hash.around"
        }
      },
      "oauth_client": [
        {
          "client_id": "861340569273-tjk92m6a12fj7kr5i95svjrj650uhg7t.apps.googleusercontent.com",
          "client_type": 1,
          "android_info": {
            "package_name": "com.hash.around",
            "certificate_hash": "cec53c8f6ab1421cd3fb63d50390a6bd0f74d39b"
          }
        },
        {
          "client_id": "861340569273-6p9dkoajoridrakl0vg6vh8koj87j1al.apps.googleusercontent.com",
          "client_type": 3
        }
      ],
      "api_key": [
        {
          "current_key": "AIzaSyANVRrqRi5D-fEeNgPMrrDeCDJonT3Hzfs"
        }
      ],
      "services": {
        "analytics_service": {
          "status": 1
        },
        "appinvite_service": {
          "status": 2,
          "other_platform_oauth_client": [
            {
              "client_id": "861340569273-6p9dkoajoridrakl0vg6vh8koj87j1al.apps.googleusercontent.com",
              "client_type": 3
            }
          ]
        },
        "ads_service": {
          "status": 2
        }
      }
    }
  ],
  "configuration_version": "1"
}